<?xml version="1.0" encoding="UTF-8" standalone="no"?>
<!DOCTYPE svg PUBLIC "-//W3C//DTD SVG 1.1//EN" "http://www.w3.org/Graphics/SVG/1.1/DTD/svg11.dtd">
<svg width="69px" height="69px" version="1.1" xmlns="http://www.w3.org/2000/svg" xmlns:xlink="http://www.w3.org/1999/xlink" xml:space="preserve" xmlns:serif="http://www.serif.com/" style="fill-rule:evenodd;clip-rule:evenodd;stroke-miterlimit:1;">
    <g transform="matrix(1,0,0,1,-1153.51,-881.59)">
        <g id="decline">
            <g transform="matrix(2.38354,0,0,2.30609,-1649.56,-1364.25)">
                <rect x="1176.01" y="973.873" width="28.728" height="29.829" style="fill:rgb(255,200,200);"/>
            </g>
            <g transform="matrix(-0.5732,0.5732,-1.08294,-1.08294,2777.67,1290.18)">
                <path d="M1027.23,906.598L1094.61,906.598" style="fill:none;stroke:black;stroke-width:3.26px;"/>
            </g>
            <g transform="matrix(-0.5732,-0.5732,1.08294,-1.08294,814.15,2506.47)">
                <path d="M1027.23,906.598L1094.61,906.598" style="fill:none;stroke:black;stroke-width:3.26px;"/>
            </g>
        </g>
    </g>
</svg>
